{
  "scientific_name": "Phaseolus vulgaris",
  "needed_weather": "soleil",
  "needed_ground": ["Sabloneux", "terreau", "argileux"],
  "sewing_season": "automne",
  "relative_informations": "Légume vert par excellence, aux qualités tant diététiques que gustatives, le haricot se décline en gousses croquantes ou en grains fondants et il nourrit le sol du jardin en même temps que le jardinier.",
  "sewing_needs": "Il apprécie un sol sain, frais et meuble, sans fumure organique récente. Il redoute le calcaire et les terres froides ou sèches. ",
  "sewing_techniques": "Semez en lignes espacées de 40 à 50 cm (70 cm pour les variétés grimpantes), une graine tous les 5 à 7 cm, ou en poquets de 4 ou 5 graines disposés en quinconce tous les 40 cm (6 ou 7 graines tous les 50 cm pour les grimpants). \n Recouvrez les graines de 2 à 3 cm de terre.  ",
  "associations": "L'odeur de la sariette va repousser la  mouche du haricot."
}
