{
  "scientific_name": "Solanum tuberosum",
  "needed_weather": "soleil",
  "needed_ground": ["Sabloneux","terreau","argileux"],
  "sewing_season": "printemps",
  "relative_informations": "Très facile à cultiver et de récolte très généreuse, la pomme de terre est un des légumes les plus consommés au monde. Elle fait le bonheur des jardiniers amateurs mais aussi des jardiniers expérimentés. N'hésitez donc pas à varier les variétés !",
  "sewing_needs": "Elle apprécie un sol profond, fertile, humifère, bien drainé, voire sablonneux, ou argilo-siliceux \n Elle se plante au potager et s'entend bien avec les légumineuses\n il est conseillé d'attendre au moins 4 ans avant de la planter à la même place. ",
  "sewing_techniques": "Plantez les tubercules à 15 cm de profondeur à 40 cm d'intervalle (le tubercule doit être placé les germes dirigés vers le haut). \n Écartez les rangs de 50 ou 60 cm. \n Buttez les plants quand ils mesurent environ 20 cm",
  "associations": "Le pois repousse le doryphore de la pomme de terre "
}
